{
  "project_info": {
    "project_number": "978279586510",
    "project_id": "project0024-15c11",
    "storage_bucket": "project0024-15c11.appspot.com"
  },
  "client": [
    {
      "client_info": {
        "mobilesdk_app_id": "1:978279586510:android:eccd34f945c2d84f99ce9f",
        "android_client_info": {
          "package_name": "com.example.flutter_firebase_auth"
        }
      },
      "oauth_client": [
        {
          "client_id": "978279586510-m2of3e8qq1fk8sumfqr5a6cnjon2i8bl.apps.googleusercontent.com",
          "client_type": 3
        }
      ],
      "api_key": [
        {
          "current_key": "AIzaSyCmTpB9BDly2UjH1FNtKJEe2mkuyCyrAO0"
        }
      ],
      "services": {
        "appinvite_service": {
          "other_platform_oauth_client": [
            {
              "client_id": "978279586510-m2of3e8qq1fk8sumfqr5a6cnjon2i8bl.apps.googleusercontent.com",
              "client_type": 3
            }
          ]
        }
      }
    }
  ],
  "configuration_version": "1"
}